<svg width="15" height="19" viewBox="0 0 15 19" fill="none" xmlns="http://www.w3.org/2000/svg">
<path d="M7.7397 0.00391433C3.88119 -0.12612 0.712509 2.96299 0.712509 6.79213C0.712509 11.1378 4.88284 14.2915 7.22031 18.8271C7.33898 19.0574 7.67049 19.0577 7.78957 18.8274C9.90415 14.7464 13.5182 12.0098 14.188 8.07811C14.8815 4.00962 11.8645 0.142975 7.7397 0.00391433ZM7.50461 10.3499C5.53974 10.3499 3.94686 8.75695 3.94686 6.79213C3.94686 4.8273 5.53978 3.23438 7.50461 3.23438C9.46947 3.23438 11.0624 4.8273 11.0624 6.79213C11.0624 8.75695 9.46947 10.3499 7.50461 10.3499Z" fill="#FAFAFA"/>
</svg>
